top.vcd
$date
	Thu Jul 23 22:50:08 2026
$end
$version
	Icarus Verilog
$end
$timescale
	1ps
$end
$scope module riscv_top_tb $end
$var wire 32 ! pc [31:0] $end
$var wire 32 " instruction [31:0] $end
$var reg 1 # clk $end
$var reg 1 $ reset $end
$var integer 32 % i [31:0] $end
$scope module dut $end
$var wire 1 # clk $end
$var wire 1 $ reset $end
$var wire 1 & zero_flag_E $end
$var wire 32 ' write_data_W [31:0] $end
$var wire 32 ( rs2_forwarded [31:0] $end
$var wire 32 ) rs2_data_M [31:0] $end
$var wire 5 * rs2_M [4:0] $end
$var wire 5 + rs2_E [4:0] $end
$var wire 5 , rs2_D [4:0] $end
$var wire 32 - rs1_forwarded [31:0] $end
$var wire 5 . rs1_M [4:0] $end
$var wire 5 / rs1_E [4:0] $end
$var wire 5 0 rs1_D [4:0] $end
$var wire 32 1 result_E [31:0] $end
$var wire 1 2 reg_write_M $end
$var wire 1 3 reg_write_E $end
$var wire 32 4 read_data_M [31:0] $end
$var wire 5 5 rd_W [4:0] $end
$var wire 5 6 rd_M [4:0] $end
$var wire 5 7 rd_E [4:0] $end
$var wire 5 8 rd_D [4:0] $end
$var wire 1 9 pc_sel $end
$var wire 32 : pc_W [31:0] $end
$var wire 32 ; pc_M [31:0] $end
$var wire 32 < pc_E [31:0] $end
$var wire 32 = pc_D [31:0] $end
$var wire 32 > pc [31:0] $end
$var wire 1 ? operandA_sel_E $end
$var wire 1 @ operandA_sel_D $end
$var wire 7 A opcode_E [6:0] $end
$var wire 7 B opcode_D [6:0] $end
$var wire 32 C mem_data_W [31:0] $end
$var wire 32 D instruction_D [31:0] $end
$var wire 32 E instruction [31:0] $end
$var wire 32 F immediate_E [31:0] $end
$var wire 32 G immediate_D [31:0] $end
$var wire 3 H funct3_M [2:0] $end
$var wire 3 I funct3_E [2:0] $end
$var wire 3 J funct3_D [2:0] $end
$var wire 2 K forwardB [1:0] $end
$var wire 2 L forwardA [1:0] $end
$var wire 32 M data2_E [31:0] $end
$var wire 32 N data2_D [31:0] $end
$var wire 32 O data1_E [31:0] $end
$var wire 32 P data1_D [31:0] $end
$var wire 32 Q branched_address [31:0] $end
$var wire 32 R alu_result_W [31:0] $end
$var wire 32 S alu_result_M [31:0] $end
$var wire 2 T WriteBackSel_W [1:0] $end
$var wire 2 U WriteBackSel_M [1:0] $end
$var wire 2 V WriteBackSel_E [1:0] $end
$var wire 2 W WriteBackSel_D [1:0] $end
$var wire 1 X Reg_write_D $end
$var wire 1 Y RegWrite_W $end
$var wire 1 Z PCWrite $end
$var wire 1 [ MemoryWrite_E $end
$var wire 1 \ MemoryWrite_D $end
$var wire 1 ] MemoryRead_E $end
$var wire 1 ^ MemoryRead_D $end
$var wire 1 _ MemWrite_M $end
$var wire 1 ` MemRead_M $end
$var wire 1 a Jump_E $end
$var wire 1 b Jump_D $end
$var wire 1 c IF_ID_Write $end
$var wire 1 d ID_EX_Flush $end
$var wire 1 e Branch_E $end
$var wire 1 f Branch_D $end
$var wire 1 g ALUSrc_E $end
$var wire 1 h ALUSrc_D $end
$var wire 4 i ALUControl_E [3:0] $end
$var wire 4 j ALUControl_D [3:0] $end
$scope module decode_unit $end
$var wire 1 # clk $end
$var wire 1 $ reset $end
$var wire 32 k write_data_W [31:0] $end
$var wire 5 l rs2_D [4:0] $end
$var wire 5 m rs1_D [4:0] $end
$var wire 5 n rd_W [4:0] $end
$var wire 5 o rd_D [4:0] $end
$var wire 1 @ operandA_sel_D $end
$var wire 7 p opcode_D [6:0] $end
$var wire 32 q instruction_D [31:0] $end
$var wire 32 r immediate_D [31:0] $end
$var wire 7 s funct7 [6:0] $end
$var wire 3 t funct3_D [2:0] $end
$var wire 32 u data2_D [31:0] $end
$var wire 32 v data1_D [31:0] $end
$var wire 2 w WriteBackSel_D [1:0] $end
$var wire 1 X Reg_write_D $end
$var wire 1 Y RegWrite_W $end
$var wire 1 \ MemoryWrite_D $end
$var wire 1 ^ MemoryRead_D $end
$var wire 1 b Jump_D $end
$var wire 3 x ImmSel_D [2:0] $end
$var wire 1 f Branch_D $end
$var wire 1 h ALUSrc_D $end
$var wire 3 y ALUOp_D [2:0] $end
$var wire 4 z ALUControl_D [3:0] $end
$scope module u_alu_control $end
$var wire 32 { instruction_D [31:0] $end
$var wire 3 | funct3 [2:0] $end
$var wire 3 } ALUOp_D [2:0] $end
$var parameter 4 ~ ALU_ADD $end
$var parameter 4 !" ALU_AND $end
$var parameter 4 "" ALU_AUIPC $end
$var parameter 4 #" ALU_LUI $end
$var parameter 4 $" ALU_OR $end
$var parameter 4 %" ALU_RES12 $end
$var parameter 4 &" ALU_SLL $end
$var parameter 4 '" ALU_SLT $end
$var parameter 4 (" ALU_SLTU $end
$var parameter 4 )" ALU_SRA $end
$var parameter 4 *" ALU_SRL $end
$var parameter 4 +" ALU_SUB $end
$var parameter 4 ," ALU_XOR $end
$var parameter 3 -" AUIPC_OP $end
$var parameter 3 ." BRANCH $end
$var parameter 3 /" I_TYPE_ALU $end
$var parameter 3 0" LOAD_STORE_ADRESS_CALC $end
$var parameter 3 1" LUI_OP $end
$var parameter 3 2" RESERVED $end
$var parameter 3 3" R_TYPE $end
$var reg 4 4" ALUControl_D [3:0] $end
$upscope $end
$scope module u_control_unit $end
$var wire 7 5" opcode [6:0] $end
$var wire 32 6" instruction_D [31:0] $end
$var reg 3 7" ALUOp_D [2:0] $end
$var reg 1 h ALUSrc_D $end
$var reg 1 f Branch_D $end
$var reg 3 8" ImmSel_D [2:0] $end
$var reg 1 b Jump_D $end
$var reg 1 ^ MemoryRead_D $end
$var reg 1 \ MemoryWrite_D $end
$var reg 1 X RegWrite_D $end
$var reg 2 9" WriteBackSel_D [1:0] $end
$var reg 1 @ operandA_sel_D $end
$upscope $end
$scope module u_immediate_generator $end
$var wire 3 :" ImmSel_D [2:0] $end
$var wire 32 ;" instruction_D [31:0] $end
$var reg 32 <" immediate_D [31:0] $end
$upscope $end
$scope module u_instruction_decoder $end
$var wire 5 =" rs2_D [4:0] $end
$var wire 5 >" rs1_D [4:0] $end
$var wire 5 ?" rd_D [4:0] $end
$var wire 7 @" opcode_D [6:0] $end
$var wire 32 A" instruction_D [31:0] $end
$var wire 7 B" funct7_D [6:0] $end
$var wire 3 C" funct3_D [2:0] $end
$upscope $end
$scope module u_register_file $end
$var wire 1 # clk $end
$var wire 1 $ reset $end
$var wire 5 D" rs1_D [4:0] $end
$var wire 5 E" rs2_D [4:0] $end
$var wire 32 F" write_data_W [31:0] $end
$var wire 32 G" rs2_data_D [31:0] $end
$var wire 32 H" rs1_data_D [31:0] $end
$var wire 5 I" rd_W [4:0] $end
$var wire 1 Y RegWrite_W $end
$var integer 32 J" i [31:0] $end
$upscope $end
$upscope $end
$scope module memory_unit $end
$var wire 1 # clk $end
$var wire 32 K" write_data_M [31:0] $end
$var wire 3 L" funct3_M [2:0] $end
$var wire 32 M" address_M [31:0] $end
$var wire 1 _ MemoryWrite_M $end
$var wire 1 ` MemoryRead_M $end
$var reg 32 N" read_data [31:0] $end
$upscope $end
$scope module u1_EX_MEM $end
$var wire 1 # clk $end
$var wire 1 $ reset $end
$var wire 32 O" rs2_data_E [31:0] $end
$var wire 5 P" rs2_E [4:0] $end
$var wire 5 Q" rs1_E [4:0] $end
$var wire 5 R" rd_E [4:0] $end
$var wire 32 S" pc_E [31:0] $end
$var wire 3 T" funct3_E [2:0] $end
$var wire 32 U" alu_result_E [31:0] $end
$var wire 2 V" WriteBackSel_E [1:0] $end
$var wire 1 3 RegWrite_E $end
$var wire 1 [ MemWrite_E $end
$var wire 1 ] MemRead_E $end
$var reg 1 ` MemRead_M $end
$var reg 1 _ MemWrite_M $end
$var reg 1 2 RegWrite_M $end
$var reg 2 W" WriteBackSel_M [1:0] $end
$var reg 32 X" alu_result_M [31:0] $end
$var reg 3 Y" funct3_M [2:0] $end
$var reg 32 Z" pc_M [31:0] $end
$var reg 5 [" rd_M [4:0] $end
$var reg 5 \" rs1_M [4:0] $end
$var reg 5 ]" rs2_M [4:0] $end
$var reg 32 ^" rs2_data_M [31:0] $end
$upscope $end
$scope module u1_ID_EX $end
$var wire 4 _" ALUControl_D [3:0] $end
$var wire 1 h ALUSrc_D $end
$var wire 1 f Branch_D $end
$var wire 1 b Jump_D $end
$var wire 1 ^ MemoryRead_D $end
$var wire 1 \ MemoryWrite_D $end
$var wire 2 `" WriteBackSel_D [1:0] $end
$var wire 1 # clk $end
$var wire 32 a" data1_D [31:0] $end
$var wire 32 b" data2_D [31:0] $end
$var wire 3 c" funct3_D [2:0] $end
$var wire 32 d" immediate_D [31:0] $end
$var wire 7 e" opcode_D [6:0] $end
$var wire 1 @ operandA_sel_D $end
$var wire 5 f" rd_D [4:0] $end
$var wire 1 X reg_write_D $end
$var wire 1 $ reset $end
$var wire 5 g" rs1_D [4:0] $end
$var wire 5 h" rs2_D [4:0] $end
$var wire 32 i" pc_D [31:0] $end
$var wire 1 d ID_EX_Flush $end
$var wire 1 9 ID_EX_Branch_Flush $end
$var reg 4 j" ALUControl_E [3:0] $end
$var reg 1 g ALUSrc_E $end
$var reg 1 e Branch_E $end
$var reg 1 a Jump_E $end
$var reg 1 ] MemoryRead_E $end
$var reg 1 [ MemoryWrite_E $end
$var reg 2 k" WriteBackSel_E [1:0] $end
$var reg 32 l" data1_E [31:0] $end
$var reg 32 m" data2_E [31:0] $end
$var reg 3 n" funct3_E [2:0] $end
$var reg 32 o" immediate_E [31:0] $end
$var reg 7 p" opcode_E [6:0] $end
$var reg 1 ? operandA_sel_E $end
$var reg 32 q" pc_E [31:0] $end
$var reg 5 r" rd_E [4:0] $end
$var reg 1 3 reg_write_E $end
$var reg 5 s" rs1_E [4:0] $end
$var reg 5 t" rs2_E [4:0] $end
$upscope $end
$scope module u1_IF_ID $end
$var wire 1 # clk $end
$var wire 1 $ reset $end
$var wire 32 u" pc_F [31:0] $end
$var wire 32 v" instruction_F [31:0] $end
$var wire 1 c IF_ID_Write $end
$var wire 1 9 IF_ID_Flush $end
$var reg 32 w" instruction_D [31:0] $end
$var reg 32 x" pc_D [31:0] $end
$upscope $end
$scope module u1_MEM_WB $end
$var wire 1 2 RegWrite_M $end
$var wire 2 y" WriteBackSel_M [1:0] $end
$var wire 32 z" alu_result_M [31:0] $end
$var wire 1 # clk $end
$var wire 32 {" mem_data_M [31:0] $end
$var wire 32 |" pc_M [31:0] $end
$var wire 5 }" rd_M [4:0] $end
$var wire 1 $ reset $end
$var reg 1 Y RegWrite_W $end
$var reg 2 ~" WriteBackSel_W [1:0] $end
$var reg 32 !# alu_result_W [31:0] $end
$var reg 32 "# mem_data_W [31:0] $end
$var reg 32 ## pc_W [31:0] $end
$var reg 5 $# rd_W [4:0] $end
$upscope $end
$scope module u1_branch_jump_unit $end
$var wire 1 e Branch_E $end
$var wire 1 a Jump_E $end
$var wire 3 %# funct3_E [2:0] $end
$var wire 32 &# immediate_E [31:0] $end
$var wire 7 '# opcode_E [6:0] $end
$var wire 32 (# pc_E [31:0] $end
$var wire 1 )# unsigned_less $end
$var wire 1 *# take_branch $end
$var wire 1 +# signed_less $end
$var wire 32 ,# rs2_data_E [31:0] $end
$var wire 32 -# rs1_data_E [31:0] $end
$var wire 1 .# equal $end
$var reg 32 /# next_pc [31:0] $end
$var reg 1 9 pc_sel $end
$upscope $end
$scope module u1_execute_top $end
$var wire 4 0# ALUControl_E [3:0] $end
$var wire 1 g ALUSrc_E $end
$var wire 32 1# alu_result_M [31:0] $end
$var wire 32 2# data1_E [31:0] $end
$var wire 32 3# data2_E [31:0] $end
$var wire 32 4# immediate_E [31:0] $end
$var wire 1 ? operandA_sel_E $end
$var wire 32 5# pc_E [31:0] $end
$var wire 1 & zero_flag_E $end
$var wire 32 6# write_data_W [31:0] $end
$var wire 32 7# rs2_forwarded [31:0] $end
$var wire 32 8# rs1_forwarded [31:0] $end
$var wire 32 9# result_E [31:0] $end
$var wire 32 :# operandB [31:0] $end
$var wire 32 ;# operandA [31:0] $end
$var wire 2 <# forwardB [1:0] $end
$var wire 2 =# forwardA [1:0] $end
$scope module u_alu $end
$var wire 4 ># ALUControl_E [3:0] $end
$var wire 32 ?# operandB [31:0] $end
$var wire 32 @# operandA [31:0] $end
$var parameter 4 A# ADD $end
$var parameter 4 B# AND $end
$var parameter 4 C# AUIPC $end
$var parameter 4 D# LUI $end
$var parameter 4 E# OR $end
$var parameter 4 F# SLL $end
$var parameter 4 G# SLT $end
$var parameter 4 H# SLTU $end
$var parameter 4 I# SRA $end
$var parameter 4 J# SRL $end
$var parameter 4 K# SUB $end
$var parameter 4 L# XOR $end
$var reg 32 M# result_E [31:0] $end
$var reg 1 & zero_flag_E $end
$upscope $end
$scope module u_alusrc_mux $end
$var wire 1 g ALUSrc_E $end
$var wire 32 N# alu_result_M [31:0] $end
$var wire 32 O# data2_E [31:0] $end
$var wire 32 P# immediate_E [31:0] $end
$var wire 32 Q# rs2_forwarded [31:0] $end
$var wire 32 R# write_data_W [31:0] $end
$var wire 32 S# operandB1 [31:0] $end
$var wire 32 T# operandB [31:0] $end
$var wire 2 U# forwardB [1:0] $end
$upscope $end
$scope module u_operandA_mux $end
$var wire 32 V# alu_result_M [31:0] $end
$var wire 1 ? operandA_sel_E $end
$var wire 32 W# pc_E [31:0] $end
$var wire 32 X# rs1_data_E [31:0] $end
$var wire 32 Y# rs1_forwarded [31:0] $end
$var wire 32 Z# write_data_W [31:0] $end
$var wire 32 [# operandA1 [31:0] $end
$var wire 32 \# operandA [31:0] $end
$var wire 2 ]# forwardA [1:0] $end
$upscope $end
$upscope $end
$scope module u1_fetch_top $end
$var wire 32 ^# branched_address [31:0] $end
$var wire 1 # clk $end
$var wire 1 9 pc_sel $end
$var wire 1 $ reset $end
$var wire 32 _# pc [31:0] $end
$var wire 32 `# instruction [31:0] $end
$var wire 1 Z PCWrite $end
$scope module u1_instruction_memory $end
$var wire 32 a# instruction [31:0] $end
$var wire 32 b# address [31:0] $end
$upscope $end
$scope module u1_pc_top $end
$var wire 32 c# branched_address [31:0] $end
$var wire 1 # clk $end
$var wire 1 9 pc_sel $end
$var wire 1 $ reset $end
$var wire 32 d# pc [31:0] $end
$var wire 32 e# next_address [31:0] $end
$var wire 1 Z PCWrite $end
$scope module u1_pc $end
$var wire 1 # clk $end
$var wire 1 $ reset $end
$var wire 32 f# next_address [31:0] $end
$var wire 1 Z PCWrite $end
$var reg 32 g# pc [31:0] $end
$upscope $end
$scope module u1_pc_mux $end
$var wire 32 h# branched_address [31:0] $end
$var wire 32 i# pc [31:0] $end
$var wire 1 9 sel $end
$var wire 32 j# next_address [31:0] $end
$upscope $end
$upscope $end
$upscope $end
$scope module u1_forwarding_unit $end
$var wire 1 2 RegWrite_M $end
$var wire 1 Y RegWrite_W $end
$var wire 5 k# rd_M [4:0] $end
$var wire 5 l# rd_W [4:0] $end
$var wire 5 m# rs1_E [4:0] $end
$var wire 5 n# rs2_E [4:0] $end
$var wire 2 o# forwardB [1:0] $end
$var wire 2 p# forwardA [1:0] $end
$upscope $end
$scope module u1_hazard_detection $end
$var wire 1 ] MemoryRead_E $end
$var wire 5 q# rd_E [4:0] $end
$var wire 5 r# rs1_D [4:0] $end
$var wire 5 s# rs2_D [4:0] $end
$var reg 1 d ID_EX_Flush $end
$var reg 1 c IF_ID_Write $end
$var reg 1 Z PCWrite $end
$upscope $end
$scope module u1_writeback_mux $end
$var wire 32 t# alu_result_W [31:0] $end
$var wire 32 u# pc_W [31:0] $end
$var wire 32 v# read_data_W [31:0] $end
$var wire 2 w# write_back_sel_W [1:0] $end
$var wire 32 x# write_back_data [31:0] $end
$upscope $end
$upscope $end
$upscope $end
$enddefinitions $end
$comment Show the parameter values. $end
$dumpall
b100 L#
b1 K#
b110 J#
b111 I#
b1001 H#
b1000 G#
b101 F#
b11 E#
b1010 D#
b1011 C#
b10 B#
b0 A#
b10 3"
b110 2"
b100 1"
b0 0"
b11 /"
b1 ."
b101 -"
b100 ,"
b1 +"
b110 *"
b111 )"
b1001 ("
b1000 '"
b101 &"
b1100 %"
b11 $"
b1010 #"
b1011 ""
b10 !"
b0 ~
$end
#0
$dumpvars
b0 x#
b0 w#
b0 v#
b0 u#
b0 t#
b0 s#
b0 r#
b0 q#
b0 p#
b0 o#
b0 n#
b0 m#
b0 l#
b0 k#
b100 j#
b0 i#
b100 h#
b0 g#
b100 f#
b100 e#
b0 d#
b100 c#
b0 b#
b101000000000000010010011 a#
b101000000000000010010011 `#
b0 _#
b100 ^#
b0 ]#
b0 \#
b0 [#
b0 Z#
b0 Y#
b0 X#
b0 W#
b0 V#
b0 U#
b0 T#
b0 S#
b0 R#
b0 Q#
b0 P#
b0 O#
b0 N#
b0 M#
b0 @#
b0 ?#
b0 >#
b0 =#
b0 <#
b0 ;#
b0 :#
b0 9#
b0 8#
b0 7#
b0 6#
b0 5#
b0 4#
b0 3#
b0 2#
b0 1#
b0 0#
b100 /#
1.#
b0 -#
b0 ,#
0+#
1*#
0)#
b0 (#
b0 '#
b0 &#
b0 %#
b0 $#
b0 ##
b0 "#
b0 !#
b0 ~"
b0 }"
b0 |"
b0 {"
b0 z"
b0 y"
b0 x"
b0 w"
b101000000000000010010011 v"
b0 u"
b0 t"
b0 s"
b0 r"
b0 q"
b0 p"
b0 o"
b0 n"
b0 m"
b0 l"
b0 k"
b0 j"
b0 i"
b0 h"
b0 g"
b0 f"
b0 e"
b0 d"
b0 c"
b0 b"
b0 a"
b0 `"
b1111 _"
b0 ^"
b0 ]"
b0 \"
b0 ["
b0 Z"
b0 Y"
b0 X"
b0 W"
b0 V"
b0 U"
b0 T"
b0 S"
b0 R"
b0 Q"
b0 P"
b0 O"
b0 N"
b0 M"
b0 L"
b0 K"
b100000 J"
b0 I"
b0 H"
b0 G"
b0 F"
b0 E"
b0 D"
b0 C"
b0 B"
b0 A"
b0 @"
b0 ?"
b0 >"
b0 ="
b0 <"
b0 ;"
b0 :"
b0 9"
b0 8"
b111 7"
b0 6"
b0 5"
b1111 4"
b111 }
b0 |
b0 {
b1111 z
b111 y
b0 x
b0 w
b0 v
b0 u
b0 t
b0 s
b0 r
b0 q
b0 p
b0 o
b0 n
b0 m
b0 l
b0 k
b1111 j
b0 i
0h
0g
0f
0e
0d
1c
0b
0a
0`
0_
0^
0]
0\
0[
1Z
0Y
0X
b0 W
b0 V
b0 U
b0 T
b0 S
b0 R
b100 Q
b0 P
b0 O
b0 N
b0 M
b0 L
b0 K
b0 J
b0 I
b0 H
b0 G
b0 F
b101000000000000010010011 E
b0 D
b0 C
b0 B
b0 A
0@
0?
b0 >
b0 =
b0 <
b0 ;
b0 :
09
b0 8
b0 7
b0 6
b0 5
b0 4
03
02
b0 1
b0 0
b0 /
b0 .
b0 -
b0 ,
b0 +
b0 *
b0 )
b0 (
b0 '
1&
bx %
1$
0#
b101000000000000010010011 "
b0 !
$end
#5000
b100000 J"
1#
#10000
0#
#15000
b100000 J"
1#
#20000
0#
0$
#25000
b0 j
b0 z
b0 4"
b0 _"
b11 y
b11 }
b11 7"
1h
1X
b1010 ,
b1010 l
b1010 ="
b1010 E"
b1010 h"
b1010 s#
b1 8
b1 o
b1 ?"
b1 f"
b10011 B
b10011 p
b10011 @"
b10011 e"
b10011 5"
b1010 G
b1010 r
b1010 <"
b1010 d"
b1000 e#
b1000 f#
b1000 j#
b1010000000000000100010011 "
b1010000000000000100010011 E
b1010000000000000100010011 v"
b1010000000000000100010011 `#
b1010000000000000100010011 a#
b1111 i
b1111 j"
b1111 0#
b1111 >#
b101000000000000010010011 D
b101000000000000010010011 q
b101000000000000010010011 {
b101000000000000010010011 6"
b101000000000000010010011 ;"
b101000000000000010010011 A"
b101000000000000010010011 w"
b100 !
b100 >
b100 u"
b100 _#
b100 b#
b100 d#
b100 g#
b100 i#
1#
#30000
0#
#35000
0&
b1010 1
b1010 U"
b1010 9#
b1010 M#
b1100 e#
b1100 f#
b1100 j#
b1000001000000110110011 "
b1000001000000110110011 E
b1000001000000110110011 v"
b1000001000000110110011 `#
b1000001000000110110011 a#
b10100 ,
b10100 l
b10100 ="
b10100 E"
b10100 h"
b10100 s#
b10 8
b10 o
b10 ?"
b10 f"
b10100 G
b10100 r
b10100 <"
b10100 d"
b1010 :#
b1010 ?#
b1010 T#
b1000 !
b1000 >
b1000 u"
b1000 _#
b1000 b#
b1000 d#
b1000 g#
b1000 i#
b100 =
b100 i"
b100 x"
b1010000000000000100010011 D
b1010000000000000100010011 q
b1010000000000000100010011 {
b1010000000000000100010011 6"
b1010000000000000100010011 ;"
b1010000000000000100010011 A"
b1010000000000000100010011 w"
b1010 +
b1010 P"
b1010 t"
b1010 n#
b1 7
b1 R"
b1 r"
b1 q#
b10011 A
b10011 p"
b10011 '#
13
1g
b0 i
b0 j"
b0 0#
b0 >#
b1010 F
b1010 o"
b1010 &#
b1010 4#
b1010 P#
1#
#40000
0#
#45000
b10100 1
b10100 U"
b10100 9#
b10100 M#
b10 y
b10 }
b10 7"
b111 x
b111 8"
b111 :"
0h
b1000 Q
b1000 /#
b1000 ^#
b1000 c#
b1000 h#
b10100 :#
b10100 ?#
b10100 T#
b10 ,
b10 l
b10 ="
b10 E"
b10 h"
b10 s#
b1 0
b1 m
b1 >"
b1 D"
b1 g"
b1 r#
b11 8
b11 o
b11 ?"
b11 f"
b110011 B
b110011 p
b110011 @"
b110011 e"
b110011 5"
b0 G
b0 r
b0 <"
b0 d"
b10000 e#
b10000 f#
b10000 j#
b100011000001000110011 "
b100011000001000110011 E
b100011000001000110011 v"
b100011000001000110011 `#
b100011000001000110011 a#
12
b1010 *
b1010 ]"
b1 6
b1 ["
b1 }"
b1 k#
b1010 S
b1010 M"
b1010 X"
b1010 z"
b1010 1#
b1010 N#
b1010 V#
b10100 +
b10100 P"
b10100 t"
b10100 n#
b10 7
b10 R"
b10 r"
b10 q#
b100 <
b100 S"
b100 q"
b100 (#
b100 5#
b100 W#
b10100 F
b10100 o"
b10100 &#
b10100 4#
b10100 P#
b1000 =
b1000 i"
b1000 x"
b1000001000000110110011 D
b1000001000000110110011 q
b1000001000000110110011 {
b1000001000000110110011 6"
b1000001000000110110011 ;"
b1000001000000110110011 A"
b1000001000000110110011 w"
b1100 !
b1100 >
b1100 u"
b1100 _#
b1100 b#
b1100 d#
b1100 g#
b1100 i#
1#
#50000
0#
#55000
b1010 ;#
b1010 @#
b1010 \#
b1010 -
b1010 -#
b1010 8#
b1010 Y#
b1010 [#
b1010 N
b1010 u
b1010 G"
b1010 b"
0*#
b10 L
b10 =#
b10 ]#
b10 p#
1)#
1+#
0.#
b10100 (
b10100 O"
b10100 ,#
b10100 7#
b10100 Q#
b10100 S#
0&
b0 P
b0 v
b0 H"
b0 a"
b1 K
b1 <#
b1 U#
b1 o#
b11110 1
b11110 U"
b11110 9#
b11110 M#
b10100 e#
b10100 f#
b10100 j#
b10000000010000000100011 "
b10000000010000000100011 E
b10000000010000000100011 v"
b10000000010000000100011 `#
b10000000010000000100011 a#
b1 ,
b1 l
b1 ="
b1 E"
b1 h"
b1 s#
b11 0
b11 m
b11 >"
b11 D"
b11 g"
b11 r#
b100 8
b100 o
b100 ?"
b100 f"
b1100 Q
b1100 /#
b1100 ^#
b1100 c#
b1100 h#
b10100 :#
b10100 ?#
b10100 T#
b1010 '
b1010 k
b1010 F"
b1010 6#
b1010 R#
b1010 Z#
b1010 x#
b10000 !
b10000 >
b10000 u"
b10000 _#
b10000 b#
b10000 d#
b10000 g#
b10000 i#
b1100 =
b1100 i"
b1100 x"
b100011000001000110011 D
b100011000001000110011 q
b100011000001000110011 {
b100011000001000110011 6"
b100011000001000110011 ;"
b100011000001000110011 A"
b100011000001000110011 w"
b10 +
b10 P"
b10 t"
b10 n#
b1 /
b1 Q"
b1 s"
b1 m#
b11 7
b11 R"
b11 r"
b11 q#
b110011 A
b110011 p"
b110011 '#
0g
b1000 <
b1000 S"
b1000 q"
b1000 (#
b1000 5#
b1000 W#
b0 F
b0 o"
b0 &#
b0 4#
b0 P#
b10100 *
b10100 ]"
b10 6
b10 ["
b10 }"
b10 k#
b100 ;
b100 Z"
b100 |"
b10100 S
b10100 M"
b10100 X"
b10100 z"
b10100 1#
b10100 N#
b10100 V#
1Y
b1 5
b1 n
b1 I"
b1 $#
b1 l#
b1010 R
b1010 !#
b1010 t#
1#
#60000
0#
#65000
b11110 ;#
b11110 @#
b11110 \#
b0 N
b0 u
b0 G"
b0 b"
b11110 -
b11110 -#
b11110 8#
b11110 Y#
b11110 [#
b101000 1
b101000 U"
b101000 9#
b101000 M#
0)#
0+#
0.#
b1 L
b1 =#
b1 ]#
b1 p#
b1010 :#
b1010 ?#
b1010 T#
b0 K
b0 <#
b0 U#
b0 o#
b11 W
b11 w
b11 9"
b11 `"
b0 y
b0 }
b0 7"
b1 x
b1 8"
b1 :"
1\
1h
0X
b0 j
b0 z
b0 4"
b0 _"
b10100 '
b10100 k
b10100 F"
b10100 6#
b10100 R#
b10100 Z#
b10100 x#
b1010 (
b1010 O"
b1010 ,#
b1010 7#
b1010 Q#
b1010 S#
b10000 Q
b10000 /#
b10000 ^#
b10000 c#
b10000 h#
b100 ,
b100 l
b100 ="
b100 E"
b100 h"
b100 s#
b0 0
b0 m
b0 >"
b0 D"
b0 g"
b0 r#
b10 J
b10 t
b10 C"
b10 c"
b0 8
b0 o
b0 ?"
b0 f"
b100011 B
b100011 p
b100011 @"
b100011 e"
b100011 5"
b10 |
b11000 e#
b11000 f#
b11000 j#
b10001010000011 "
b10001010000011 E
b10001010000011 v"
b10001010000011 `#
b10001010000011 a#
b100 :
b100 ##
b100 u#
b10 5
b10 n
b10 I"
b10 $#
b10 l#
b10100 R
b10100 !#
b10100 t#
b10 *
b10 ]"
b1 .
b1 \"
b11 6
b11 ["
b11 }"
b11 k#
b1000 ;
b1000 Z"
b1000 |"
b10100 )
b10100 K"
b10100 ^"
b11110 S
b11110 M"
b11110 X"
b11110 z"
b11110 1#
b11110 N#
b11110 V#
b1 +
b1 P"
b1 t"
b1 n#
b11 /
b11 Q"
b11 s"
b11 m#
b100 7
b100 R"
b100 r"
b100 q#
b1100 <
b1100 S"
b1100 q"
b1100 (#
b1100 5#
b1100 W#
b1010 M
b1010 m"
b1010 3#
b1010 O#
b10000 =
b10000 i"
b10000 x"
b10000000010000000100011 D
b10000000010000000100011 q
b10000000010000000100011 {
b10000000010000000100011 6"
b10000000010000000100011 ;"
b10000000010000000100011 A"
b10000000010000000100011 w"
b10100 !
b10100 >
b10100 u"
b10100 _#
b10100 b#
b10100 d#
b10100 g#
b10100 i#
1#
#70000
0#
#75000
1&
b0 1
b0 U"
b0 9#
b0 M#
1)#
1+#
0.#
b1 W
b1 w
b1 9"
b1 `"
b0 x
b0 8"
b0 :"
0\
1^
1X
b1 K
b1 <#
b1 U#
b1 o#
b101000 (
b101000 O"
b101000 ,#
b101000 7#
b101000 Q#
b101000 S#
b0 L
b0 =#
b0 ]#
b0 p#
b0 ;#
b0 @#
b0 \#
b11100 e#
b11100 f#
b11100 j#
b10100100000001100110011 "
b10100100000001100110011 E
b10100100000001100110011 v"
b10100100000001100110011 `#
b10100100000001100110011 a#
b0 ,
b0 l
b0 ="
b0 E"
b0 h"
b0 s#
b101 8
b101 o
b101 ?"
b101 f"
b11 B
b11 p
b11 @"
b11 e"
b11 5"
b0 G
b0 r
b0 <"
b0 d"
b0 :#
b0 ?#
b0 T#
b10100 Q
b10100 /#
b10100 ^#
b10100 c#
b10100 h#
b0 -
b0 -#
b0 8#
b0 Y#
b0 [#
b11110 '
b11110 k
b11110 F"
b11110 6#
b11110 R#
b11110 Z#
b11110 x#
b11000 !
b11000 >
b11000 u"
b11000 _#
b11000 b#
b11000 d#
b11000 g#
b11000 i#
b10100 =
b10100 i"
b10100 x"
b10001010000011 D
b10001010000011 q
b10001010000011 {
b10001010000011 6"
b10001010000011 ;"
b10001010000011 A"
b10001010000011 w"
b100 +
b100 P"
b100 t"
b100 n#
b0 /
b0 Q"
b0 s"
b0 m#
b0 7
b0 R"
b0 r"
b0 q#
b100011 A
b100011 p"
b100011 '#
b10 I
b10 T"
b10 n"
b10 %#
03
1[
1g
b11 V
b11 V"
b11 k"
b10000 <
b10000 S"
b10000 q"
b10000 (#
b10000 5#
b10000 W#
b0 M
b0 m"
b0 3#
b0 O#
b1 *
b1 ]"
b11 .
b11 \"
b100 6
b100 ["
b100 }"
b100 k#
b1100 ;
b1100 Z"
b1100 |"
b1010 )
b1010 K"
b1010 ^"
b101000 S
b101000 M"
b101000 X"
b101000 z"
b101000 1#
b101000 N#
b101000 V#
b1000 :
b1000 ##
b1000 u#
b11 5
b11 n
b11 I"
b11 $#
b11 l#
b11110 R
b11110 !#
b11110 t#
1#
#80000
0#
