top.vcd
$date
	Wed Jul 22 19:36:55 2026
$end
$version
	Icarus Verilog
$end
$timescale
	1ps
$end
$scope module riscv_top_tb $end
$var wire 32 ! pc [31:0] $end
$var wire 32 " instruction [31:0] $end
$var reg 1 # clk $end
$var reg 1 $ reset $end
$scope module dut $end
$var wire 1 # clk $end
$var wire 1 $ reset $end
$var wire 1 % zero_flag_E $end
$var wire 32 & write_data_W [31:0] $end
$var wire 32 ' rs2_forwarded [31:0] $end
$var wire 32 ( rs2_data_M [31:0] $end
$var wire 5 ) rs2_M [4:0] $end
$var wire 5 * rs2_E [4:0] $end
$var wire 5 + rs2_D [4:0] $end
$var wire 32 , rs1_forwarded [31:0] $end
$var wire 5 - rs1_M [4:0] $end
$var wire 5 . rs1_E [4:0] $end
$var wire 5 / rs1_D [4:0] $end
$var wire 32 0 result_E [31:0] $end
$var wire 1 1 reg_write_M $end
$var wire 1 2 reg_write_E $end
$var wire 32 3 read_data_M [31:0] $end
$var wire 5 4 rd_W [4:0] $end
$var wire 5 5 rd_M [4:0] $end
$var wire 5 6 rd_E [4:0] $end
$var wire 5 7 rd_D [4:0] $end
$var wire 1 8 pc_sel $end
$var wire 32 9 pc_W [31:0] $end
$var wire 32 : pc_M [31:0] $end
$var wire 32 ; pc_E [31:0] $end
$var wire 32 < pc_D [31:0] $end
$var wire 32 = pc [31:0] $end
$var wire 1 > operandA_sel_E $end
$var wire 1 ? operandA_sel_D $end
$var wire 7 @ opcode_E [6:0] $end
$var wire 7 A opcode_D [6:0] $end
$var wire 32 B mem_data_W [31:0] $end
$var wire 32 C instruction_D [31:0] $end
$var wire 32 D instruction [31:0] $end
$var wire 32 E immediate_E [31:0] $end
$var wire 32 F immediate_D [31:0] $end
$var wire 3 G funct3_M [2:0] $end
$var wire 3 H funct3_E [2:0] $end
$var wire 3 I funct3_D [2:0] $end
$var wire 2 J forwardB [1:0] $end
$var wire 2 K forwardA [1:0] $end
$var wire 32 L data2_E [31:0] $end
$var wire 32 M data2_D [31:0] $end
$var wire 32 N data1_E [31:0] $end
$var wire 32 O data1_D [31:0] $end
$var wire 32 P branched_address [31:0] $end
$var wire 32 Q alu_result_W [31:0] $end
$var wire 32 R alu_result_M [31:0] $end
$var wire 2 S WriteBackSel_W [1:0] $end
$var wire 2 T WriteBackSel_M [1:0] $end
$var wire 2 U WriteBackSel_E [1:0] $end
$var wire 2 V WriteBackSel_D [1:0] $end
$var wire 1 W Reg_write_D $end
$var wire 1 X RegWrite_W $end
$var wire 1 Y PCWrite $end
$var wire 1 Z MemoryWrite_E $end
$var wire 1 [ MemoryWrite_D $end
$var wire 1 \ MemoryRead_E $end
$var wire 1 ] MemoryRead_D $end
$var wire 1 ^ MemWrite_M $end
$var wire 1 _ MemRead_M $end
$var wire 1 ` Jump_E $end
$var wire 1 a Jump_D $end
$var wire 1 b IF_ID_Write $end
$var wire 1 c ID_EX_Flush $end
$var wire 1 d Branch_E $end
$var wire 1 e Branch_D $end
$var wire 1 f ALUSrc_E $end
$var wire 1 g ALUSrc_D $end
$var wire 4 h ALUControl_E [3:0] $end
$var wire 4 i ALUControl_D [3:0] $end
$scope module decode_unit $end
$var wire 1 # clk $end
$var wire 1 $ reset $end
$var wire 32 j write_data_W [31:0] $end
$var wire 5 k rs2_D [4:0] $end
$var wire 5 l rs1_D [4:0] $end
$var wire 5 m rd_W [4:0] $end
$var wire 5 n rd_D [4:0] $end
$var wire 1 ? operandA_sel_D $end
$var wire 7 o opcode_D [6:0] $end
$var wire 32 p instruction_D [31:0] $end
$var wire 32 q immediate_D [31:0] $end
$var wire 7 r funct7 [6:0] $end
$var wire 3 s funct3_D [2:0] $end
$var wire 32 t data2_D [31:0] $end
$var wire 32 u data1_D [31:0] $end
$var wire 2 v WriteBackSel_D [1:0] $end
$var wire 1 W Reg_write_D $end
$var wire 1 X RegWrite_W $end
$var wire 1 [ MemoryWrite_D $end
$var wire 1 ] MemoryRead_D $end
$var wire 1 a Jump_D $end
$var wire 3 w ImmSel_D [2:0] $end
$var wire 1 e Branch_D $end
$var wire 1 g ALUSrc_D $end
$var wire 3 x ALUOp_D [2:0] $end
$var wire 4 y ALUControl_D [3:0] $end
$scope module u_alu_control $end
$var wire 32 z instruction_D [31:0] $end
$var wire 3 { funct3 [2:0] $end
$var wire 3 | ALUOp_D [2:0] $end
$var parameter 4 } ALU_ADD $end
$var parameter 4 ~ ALU_AND $end
$var parameter 4 !" ALU_AUIPC $end
$var parameter 4 "" ALU_LUI $end
$var parameter 4 #" ALU_OR $end
$var parameter 4 $" ALU_RES12 $end
$var parameter 4 %" ALU_SLL $end
$var parameter 4 &" ALU_SLT $end
$var parameter 4 '" ALU_SLTU $end
$var parameter 4 (" ALU_SRA $end
$var parameter 4 )" ALU_SRL $end
$var parameter 4 *" ALU_SUB $end
$var parameter 4 +" ALU_XOR $end
$var parameter 3 ," AUIPC_OP $end
$var parameter 3 -" BRANCH $end
$var parameter 3 ." I_TYPE_ALU $end
$var parameter 3 /" LOAD_STORE_ADRESS_CALC $end
$var parameter 3 0" LUI_OP $end
$var parameter 3 1" RESERVED $end
$var parameter 3 2" R_TYPE $end
$var reg 4 3" ALUControl_D [3:0] $end
$upscope $end
$scope module u_control_unit $end
$var wire 7 4" opcode [6:0] $end
$var wire 32 5" instruction_D [31:0] $end
$var reg 3 6" ALUOp_D [2:0] $end
$var reg 1 g ALUSrc_D $end
$var reg 1 e Branch_D $end
$var reg 3 7" ImmSel_D [2:0] $end
$var reg 1 a Jump_D $end
$var reg 1 ] MemoryRead_D $end
$var reg 1 [ MemoryWrite_D $end
$var reg 1 W RegWrite_D $end
$var reg 2 8" WriteBackSel_D [1:0] $end
$var reg 1 ? operandA_sel_D $end
$upscope $end
$scope module u_immediate_generator $end
$var wire 3 9" ImmSel_D [2:0] $end
$var wire 32 :" instruction_D [31:0] $end
$var reg 32 ;" immediate_D [31:0] $end
$upscope $end
$scope module u_instruction_decoder $end
$var wire 5 <" rs2_D [4:0] $end
$var wire 5 =" rs1_D [4:0] $end
$var wire 5 >" rd_D [4:0] $end
$var wire 7 ?" opcode_D [6:0] $end
$var wire 32 @" instruction_D [31:0] $end
$var wire 7 A" funct7_D [6:0] $end
$var wire 3 B" funct3_D [2:0] $end
$upscope $end
$scope module u_register_file $end
$var wire 1 # clk $end
$var wire 1 $ reset $end
$var wire 5 C" rs1_D [4:0] $end
$var wire 5 D" rs2_D [4:0] $end
$var wire 32 E" write_data_W [31:0] $end
$var wire 32 F" rs2_data_D [31:0] $end
$var wire 32 G" rs1_data_D [31:0] $end
$var wire 5 H" rd_W [4:0] $end
$var wire 1 X RegWrite_W $end
$var integer 32 I" i [31:0] $end
$upscope $end
$upscope $end
$scope module memory_unit $end
$var wire 1 # clk $end
$var wire 32 J" write_data_M [31:0] $end
$var wire 3 K" funct3_M [2:0] $end
$var wire 32 L" address_M [31:0] $end
$var wire 1 ^ MemoryWrite_M $end
$var wire 1 _ MemoryRead_M $end
$var reg 32 M" read_data [31:0] $end
$var integer 32 N" i [31:0] $end
$upscope $end
$scope module u1_EX_MEM $end
$var wire 1 # clk $end
$var wire 1 $ reset $end
$var wire 32 O" rs2_data_E [31:0] $end
$var wire 5 P" rs2_E [4:0] $end
$var wire 5 Q" rs1_E [4:0] $end
$var wire 5 R" rd_E [4:0] $end
$var wire 32 S" pc_E [31:0] $end
$var wire 3 T" funct3_E [2:0] $end
$var wire 32 U" alu_result_E [31:0] $end
$var wire 2 V" WriteBackSel_E [1:0] $end
$var wire 1 2 RegWrite_E $end
$var wire 1 Z MemWrite_E $end
$var wire 1 \ MemRead_E $end
$var reg 1 _ MemRead_M $end
$var reg 1 ^ MemWrite_M $end
$var reg 1 1 RegWrite_M $end
$var reg 2 W" WriteBackSel_M [1:0] $end
$var reg 32 X" alu_result_M [31:0] $end
$var reg 3 Y" funct3_M [2:0] $end
$var reg 32 Z" pc_M [31:0] $end
$var reg 5 [" rd_M [4:0] $end
$var reg 5 \" rs1_M [4:0] $end
$var reg 5 ]" rs2_M [4:0] $end
$var reg 32 ^" rs2_data_M [31:0] $end
$upscope $end
$scope module u1_ID_EX $end
$var wire 4 _" ALUControl_D [3:0] $end
$var wire 1 g ALUSrc_D $end
$var wire 1 e Branch_D $end
$var wire 1 a Jump_D $end
$var wire 1 ] MemoryRead_D $end
$var wire 1 [ MemoryWrite_D $end
$var wire 2 `" WriteBackSel_D [1:0] $end
$var wire 1 # clk $end
$var wire 32 a" data1_D [31:0] $end
$var wire 32 b" data2_D [31:0] $end
$var wire 3 c" funct3_D [2:0] $end
$var wire 32 d" immediate_D [31:0] $end
$var wire 7 e" opcode_D [6:0] $end
$var wire 1 ? operandA_sel_D $end
$var wire 5 f" rd_D [4:0] $end
$var wire 1 W reg_write_D $end
$var wire 1 $ reset $end
$var wire 5 g" rs1_D [4:0] $end
$var wire 5 h" rs2_D [4:0] $end
$var wire 32 i" pc_D [31:0] $end
$var wire 1 c ID_EX_Flush $end
$var wire 1 8 ID_EX_Branch_Flush $end
$var reg 4 j" ALUControl_E [3:0] $end
$var reg 1 f ALUSrc_E $end
$var reg 1 d Branch_E $end
$var reg 1 ` Jump_E $end
$var reg 1 \ MemoryRead_E $end
$var reg 1 Z MemoryWrite_E $end
$var reg 2 k" WriteBackSel_E [1:0] $end
$var reg 32 l" data1_E [31:0] $end
$var reg 32 m" data2_E [31:0] $end
$var reg 3 n" funct3_E [2:0] $end
$var reg 32 o" immediate_E [31:0] $end
$var reg 7 p" opcode_E [6:0] $end
$var reg 1 > operandA_sel_E $end
$var reg 32 q" pc_E [31:0] $end
$var reg 5 r" rd_E [4:0] $end
$var reg 1 2 reg_write_E $end
$var reg 5 s" rs1_E [4:0] $end
$var reg 5 t" rs2_E [4:0] $end
$upscope $end
$scope module u1_IF_ID $end
$var wire 1 # clk $end
$var wire 1 $ reset $end
$var wire 32 u" pc_F [31:0] $end
$var wire 32 v" instruction_F [31:0] $end
$var wire 1 b IF_ID_Write $end
$var wire 1 8 IF_ID_Flush $end
$var reg 32 w" instruction_D [31:0] $end
$var reg 32 x" pc_D [31:0] $end
$upscope $end
$scope module u1_MEM_WB $end
$var wire 1 1 RegWrite_M $end
$var wire 2 y" WriteBackSel_M [1:0] $end
$var wire 32 z" alu_result_M [31:0] $end
$var wire 1 # clk $end
$var wire 32 {" mem_data_M [31:0] $end
$var wire 32 |" pc_M [31:0] $end
$var wire 5 }" rd_M [4:0] $end
$var wire 1 $ reset $end
$var reg 1 X RegWrite_W $end
$var reg 2 ~" WriteBackSel_W [1:0] $end
$var reg 32 !# alu_result_W [31:0] $end
$var reg 32 "# mem_data_W [31:0] $end
$var reg 32 ## pc_W [31:0] $end
$var reg 5 $# rd_W [4:0] $end
$upscope $end
$scope module u1_branch_jump_unit $end
$var wire 1 d Branch_E $end
$var wire 1 ` Jump_E $end
$var wire 3 %# funct3_E [2:0] $end
$var wire 32 &# immediate_E [31:0] $end
$var wire 7 '# opcode_E [6:0] $end
$var wire 32 (# pc_E [31:0] $end
$var wire 1 )# unsigned_less $end
$var wire 1 *# take_branch $end
$var wire 1 +# signed_less $end
$var wire 32 ,# rs2_data_E [31:0] $end
$var wire 32 -# rs1_data_E [31:0] $end
$var wire 1 .# equal $end
$var reg 32 /# next_pc [31:0] $end
$var reg 1 8 pc_sel $end
$upscope $end
$scope module u1_execute_top $end
$var wire 4 0# ALUControl_E [3:0] $end
$var wire 1 f ALUSrc_E $end
$var wire 32 1# alu_result_M [31:0] $end
$var wire 32 2# data1_E [31:0] $end
$var wire 32 3# data2_E [31:0] $end
$var wire 32 4# immediate_E [31:0] $end
$var wire 1 > operandA_sel_E $end
$var wire 32 5# pc_E [31:0] $end
$var wire 1 % zero_flag_E $end
$var wire 32 6# write_data_W [31:0] $end
$var wire 32 7# rs2_forwarded [31:0] $end
$var wire 32 8# rs1_forwarded [31:0] $end
$var wire 32 9# result_E [31:0] $end
$var wire 32 :# operandB [31:0] $end
$var wire 32 ;# operandA [31:0] $end
$var wire 2 <# forwardB [1:0] $end
$var wire 2 =# forwardA [1:0] $end
$scope module u_alu $end
$var wire 4 ># ALUControl_E [3:0] $end
$var wire 32 ?# operandB [31:0] $end
$var wire 32 @# operandA [31:0] $end
$var parameter 4 A# ADD $end
$var parameter 4 B# AND $end
$var parameter 4 C# AUIPC $end
$var parameter 4 D# LUI $end
$var parameter 4 E# OR $end
$var parameter 4 F# SLL $end
$var parameter 4 G# SLT $end
$var parameter 4 H# SLTU $end
$var parameter 4 I# SRA $end
$var parameter 4 J# SRL $end
$var parameter 4 K# SUB $end
$var parameter 4 L# XOR $end
$var reg 32 M# result_E [31:0] $end
$var reg 1 % zero_flag_E $end
$upscope $end
$scope module u_alusrc_mux $end
$var wire 1 f ALUSrc_E $end
$var wire 32 N# alu_result_M [31:0] $end
$var wire 32 O# data2_E [31:0] $end
$var wire 32 P# immediate_E [31:0] $end
$var wire 32 Q# rs2_forwarded [31:0] $end
$var wire 32 R# write_data_W [31:0] $end
$var wire 32 S# operandB1 [31:0] $end
$var wire 32 T# operandB [31:0] $end
$var wire 2 U# forwardB [1:0] $end
$upscope $end
$scope module u_operandA_mux $end
$var wire 32 V# alu_result_M [31:0] $end
$var wire 1 > operandA_sel_E $end
$var wire 32 W# pc_E [31:0] $end
$var wire 32 X# rs1_data_E [31:0] $end
$var wire 32 Y# rs1_forwarded [31:0] $end
$var wire 32 Z# write_data_W [31:0] $end
$var wire 32 [# operandA1 [31:0] $end
$var wire 32 \# operandA [31:0] $end
$var wire 2 ]# forwardA [1:0] $end
$upscope $end
$upscope $end
$scope module u1_fetch_top $end
$var wire 32 ^# branched_address [31:0] $end
$var wire 1 # clk $end
$var wire 1 8 pc_sel $end
$var wire 1 $ reset $end
$var wire 32 _# pc [31:0] $end
$var wire 32 `# instruction [31:0] $end
$var wire 1 Y PCWrite $end
$scope module u1_instruction_memory $end
$var wire 32 a# instruction [31:0] $end
$var wire 32 b# address [31:0] $end
$upscope $end
$scope module u1_pc_top $end
$var wire 32 c# branched_address [31:0] $end
$var wire 1 # clk $end
$var wire 1 8 pc_sel $end
$var wire 1 $ reset $end
$var wire 32 d# pc [31:0] $end
$var wire 32 e# next_address [31:0] $end
$var wire 1 Y PCWrite $end
$scope module u1_pc $end
$var wire 1 # clk $end
$var wire 1 $ reset $end
$var wire 32 f# next_address [31:0] $end
$var wire 1 Y PCWrite $end
$var reg 32 g# pc [31:0] $end
$upscope $end
$scope module u1_pc_mux $end
$var wire 32 h# branched_address [31:0] $end
$var wire 32 i# pc [31:0] $end
$var wire 1 8 sel $end
$var wire 32 j# next_address [31:0] $end
$upscope $end
$upscope $end
$upscope $end
$scope module u1_forwarding_unit $end
$var wire 1 1 RegWrite_M $end
$var wire 1 X RegWrite_W $end
$var wire 5 k# rd_M [4:0] $end
$var wire 5 l# rd_W [4:0] $end
$var wire 5 m# rs1_E [4:0] $end
$var wire 5 n# rs2_E [4:0] $end
$var wire 2 o# forwardB [1:0] $end
$var wire 2 p# forwardA [1:0] $end
$upscope $end
$scope module u1_hazard_detection $end
$var wire 1 \ MemoryRead_E $end
$var wire 5 q# rd_E [4:0] $end
$var wire 5 r# rs1_D [4:0] $end
$var wire 5 s# rs2_D [4:0] $end
$var reg 1 c ID_EX_Flush $end
$var reg 1 b IF_ID_Write $end
$var reg 1 Y PCWrite $end
$upscope $end
$scope module u1_writeback_mux $end
$var wire 32 t# alu_result_W [31:0] $end
$var wire 32 u# pc_W [31:0] $end
$var wire 32 v# read_data_W [31:0] $end
$var wire 2 w# write_back_sel_W [1:0] $end
$var wire 32 x# write_back_data [31:0] $end
$upscope $end
$upscope $end
$upscope $end
$enddefinitions $end
$comment Show the parameter values. $end
$dumpall
b100 L#
b1 K#
b110 J#
b111 I#
b1001 H#
b1000 G#
b101 F#
b11 E#
b1010 D#
b1011 C#
b10 B#
b0 A#
b10 2"
b110 1"
b100 0"
b0 /"
b11 ."
b1 -"
b101 ,"
b100 +"
b1 *"
b110 )"
b111 ("
b1001 '"
b1000 &"
b101 %"
b1100 $"
b11 #"
b1010 ""
b1011 !"
b10 ~
b0 }
$end
#0
$dumpvars
b0 x#
b0 w#
b0 v#
b0 u#
b0 t#
b0 s#
b0 r#
b0 q#
b0 p#
b0 o#
b0 n#
b0 m#
b0 l#
b0 k#
b100 j#
b0 i#
b100 h#
b0 g#
b100 f#
b100 e#
b0 d#
b100 c#
b0 b#
b10100000000000010010011 a#
b10100000000000010010011 `#
b0 _#
b100 ^#
b0 ]#
b0 \#
b0 [#
b0 Z#
b0 Y#
b0 X#
b0 W#
b0 V#
b0 U#
b0 T#
b0 S#
b0 R#
b0 Q#
b0 P#
b0 O#
b0 N#
b0 M#
b0 @#
b0 ?#
b0 >#
b0 =#
b0 <#
b0 ;#
b0 :#
b0 9#
b0 8#
b0 7#
b0 6#
b0 5#
b0 4#
b0 3#
b0 2#
b0 1#
b0 0#
b100 /#
1.#
b0 -#
b0 ,#
0+#
1*#
0)#
b0 (#
b0 '#
b0 &#
b0 %#
b0 $#
b0 ##
b0 "#
b0 !#
b0 ~"
b0 }"
b0 |"
b0 {"
b0 z"
b0 y"
b0 x"
b0 w"
b10100000000000010010011 v"
b0 u"
b0 t"
b0 s"
b0 r"
b0 q"
b0 p"
b0 o"
b0 n"
b0 m"
b0 l"
b0 k"
b0 j"
b0 i"
b0 h"
b0 g"
b0 f"
b0 e"
b0 d"
b0 c"
b0 b"
b0 a"
b0 `"
b1111 _"
b0 ^"
b0 ]"
b0 \"
b0 ["
b0 Z"
b0 Y"
b0 X"
b0 W"
b0 V"
b0 U"
b0 T"
b0 S"
b0 R"
b0 Q"
b0 P"
b0 O"
b100000000 N"
b0 M"
b0 L"
b0 K"
b0 J"
b100000 I"
b0 H"
b0 G"
b0 F"
b0 E"
b0 D"
b0 C"
b0 B"
b0 A"
b0 @"
b0 ?"
b0 >"
b0 ="
b0 <"
b0 ;"
b0 :"
b0 9"
b0 8"
b0 7"
b111 6"
b0 5"
b0 4"
b1111 3"
b111 |
b0 {
b0 z
b1111 y
b111 x
b0 w
b0 v
b0 u
b0 t
b0 s
b0 r
b0 q
b0 p
b0 o
b0 n
b0 m
b0 l
b0 k
b0 j
b1111 i
b0 h
0g
0f
0e
0d
0c
1b
0a
0`
0_
0^
0]
0\
0[
0Z
1Y
0X
0W
b0 V
b0 U
b0 T
b0 S
b0 R
b0 Q
b100 P
b0 O
b0 N
b0 M
b0 L
b0 K
b0 J
b0 I
b0 H
b0 G
b0 F
b0 E
b10100000000000010010011 D
b0 C
b0 B
b0 A
b0 @
0?
0>
b0 =
b0 <
b0 ;
b0 :
b0 9
08
b0 7
b0 6
b0 5
b0 4
b0 3
02
01
b0 0
b0 /
b0 .
b0 -
b0 ,
b0 +
b0 *
b0 )
b0 (
b0 '
b0 &
1%
1$
0#
b10100000000000010010011 "
b0 !
$end
#5000
b100000 I"
1#
#10000
0#
#15000
b100000 I"
1#
#20000
0#
0$
#25000
b0 i
b0 y
b0 3"
b0 _"
b11 x
b11 |
b11 6"
1g
1W
b101 +
b101 k
b101 <"
b101 D"
b101 h"
b101 s#
b1 7
b1 n
b1 >"
b1 f"
b10011 A
b10011 o
b10011 ?"
b10011 e"
b10011 4"
b101 F
b101 q
b101 ;"
b101 d"
b1000 e#
b1000 f#
b1000 j#
b101000000000000100010011 "
b101000000000000100010011 D
b101000000000000100010011 v"
b101000000000000100010011 `#
b101000000000000100010011 a#
b1111 h
b1111 j"
b1111 0#
b1111 >#
b10100000000000010010011 C
b10100000000000010010011 p
b10100000000000010010011 z
b10100000000000010010011 5"
b10100000000000010010011 :"
b10100000000000010010011 @"
b10100000000000010010011 w"
b100 !
b100 =
b100 u"
b100 _#
b100 b#
b100 d#
b100 g#
b100 i#
1#
#30000
0#
#35000
0%
b101 0
b101 U"
b101 9#
b101 M#
b1100 e#
b1100 f#
b1100 j#
b1000001000000110110011 "
b1000001000000110110011 D
b1000001000000110110011 v"
b1000001000000110110011 `#
b1000001000000110110011 a#
b1010 +
b1010 k
b1010 <"
b1010 D"
b1010 h"
b1010 s#
b10 7
b10 n
b10 >"
b10 f"
b1010 F
b1010 q
b1010 ;"
b1010 d"
b101 :#
b101 ?#
b101 T#
b1000 !
b1000 =
b1000 u"
b1000 _#
b1000 b#
b1000 d#
b1000 g#
b1000 i#
b100 <
b100 i"
b100 x"
b101000000000000100010011 C
b101000000000000100010011 p
b101000000000000100010011 z
b101000000000000100010011 5"
b101000000000000100010011 :"
b101000000000000100010011 @"
b101000000000000100010011 w"
b101 *
b101 P"
b101 t"
b101 n#
b1 6
b1 R"
b1 r"
b1 q#
b10011 @
b10011 p"
b10011 '#
12
1f
b0 h
b0 j"
b0 0#
b0 >#
b101 E
b101 o"
b101 &#
b101 4#
b101 P#
1#
#40000
0#
#45000
b1010 0
b1010 U"
b1010 9#
b1010 M#
b10 x
b10 |
b10 6"
b111 w
b111 7"
b111 9"
0g
b1000 P
b1000 /#
b1000 ^#
b1000 c#
b1000 h#
b1010 :#
b1010 ?#
b1010 T#
b10 +
b10 k
b10 <"
b10 D"
b10 h"
b10 s#
b1 /
b1 l
b1 ="
b1 C"
b1 g"
b1 r#
b11 7
b11 n
b11 >"
b11 f"
b110011 A
b110011 o
b110011 ?"
b110011 e"
b110011 4"
b0 F
b0 q
b0 ;"
b0 d"
b10000 e#
b10000 f#
b10000 j#
b1100000010010000100011 "
b1100000010010000100011 D
b1100000010010000100011 v"
b1100000010010000100011 `#
b1100000010010000100011 a#
11
b101 )
b101 ]"
b1 5
b1 ["
b1 }"
b1 k#
b101 R
b101 L"
b101 X"
b101 z"
b101 1#
b101 N#
b101 V#
b1010 *
b1010 P"
b1010 t"
b1010 n#
b10 6
b10 R"
b10 r"
b10 q#
b100 ;
b100 S"
b100 q"
b100 (#
b100 5#
b100 W#
b1010 E
b1010 o"
b1010 &#
b1010 4#
b1010 P#
b1000 <
b1000 i"
b1000 x"
b1000001000000110110011 C
b1000001000000110110011 p
b1000001000000110110011 z
b1000001000000110110011 5"
b1000001000000110110011 :"
b1000001000000110110011 @"
b1000001000000110110011 w"
b1100 !
b1100 =
b1100 u"
b1100 _#
b1100 b#
b1100 d#
b1100 g#
b1100 i#
1#
#50000
0#
#55000
b101 ;#
b101 @#
b101 \#
b101 ,
b101 -#
b101 8#
b101 Y#
b101 [#
0*#
b10 K
b10 =#
b10 ]#
b10 p#
b1000 F
b1000 q
b1000 ;"
b1000 d"
1)#
1+#
0.#
b1010 '
b1010 O"
b1010 ,#
b1010 7#
b1010 Q#
b1010 S#
0%
b11 V
b11 v
b11 8"
b11 `"
b0 x
b0 |
b0 6"
b1 w
b1 7"
b1 9"
1[
1g
0W
b0 i
b0 y
b0 3"
b0 _"
b1 J
b1 <#
b1 U#
b1 o#
b1111 0
b1111 U"
b1111 9#
b1111 M#
b10100 e#
b10100 f#
b10100 j#
b100000000010001000000011 "
b100000000010001000000011 D
b100000000010001000000011 v"
b100000000010001000000011 `#
b100000000010001000000011 a#
b11 +
b11 k
b11 <"
b11 D"
b11 h"
b11 s#
b0 /
b0 l
b0 ="
b0 C"
b0 g"
b0 r#
b10 I
b10 s
b10 B"
b10 c"
b1000 7
b1000 n
b1000 >"
b1000 f"
b100011 A
b100011 o
b100011 ?"
b100011 e"
b100011 4"
b10 {
b1100 P
b1100 /#
b1100 ^#
b1100 c#
b1100 h#
b1010 :#
b1010 ?#
b1010 T#
b101 &
b101 j
b101 E"
b101 6#
b101 R#
b101 Z#
b101 x#
b10000 !
b10000 =
b10000 u"
b10000 _#
b10000 b#
b10000 d#
b10000 g#
b10000 i#
b1100 <
b1100 i"
b1100 x"
b1100000010010000100011 C
b1100000010010000100011 p
b1100000010010000100011 z
b1100000010010000100011 5"
b1100000010010000100011 :"
b1100000010010000100011 @"
b1100000010010000100011 w"
b10 *
b10 P"
b10 t"
b10 n#
b1 .
b1 Q"
b1 s"
b1 m#
b11 6
b11 R"
b11 r"
b11 q#
b110011 @
b110011 p"
b110011 '#
0f
b1000 ;
b1000 S"
b1000 q"
b1000 (#
b1000 5#
b1000 W#
b0 E
b0 o"
b0 &#
b0 4#
b0 P#
b1010 )
b1010 ]"
b10 5
b10 ["
b10 }"
b10 k#
b100 :
b100 Z"
b100 |"
b1010 R
b1010 L"
b1010 X"
b1010 z"
b1010 1#
b1010 N#
b1010 V#
1X
b1 4
b1 m
b1 H"
b1 $#
b1 l#
b101 Q
b101 !#
b101 t#
1#
#60000
0#
#65000
b0 ;#
b0 @#
b0 \#
b0 ,
b0 -#
b0 8#
b0 Y#
b0 [#
b0 K
b0 =#
b0 ]#
b0 p#
b1000 0
b1000 U"
b1000 9#
b1000 M#
b1 V
b1 v
b1 8"
b1 `"
b0 w
b0 7"
b0 9"
0[
1]
1W
b1010 &
b1010 j
b1010 E"
b1010 6#
b1010 R#
b1010 Z#
b1010 x#
b1111 '
b1111 O"
b1111 ,#
b1111 7#
b1111 Q#
b1111 S#
b1000 :#
b1000 ?#
b1000 T#
b10000 P
b10000 /#
b10000 ^#
b10000 c#
b10000 h#
b1000 +
b1000 k
b1000 <"
b1000 D"
b1000 h"
b1000 s#
b100 7
b100 n
b100 >"
b100 f"
b11 A
b11 o
b11 ?"
b11 e"
b11 4"
b1000 F
b1000 q
b1000 ;"
b1000 d"
b11000 e#
b11000 f#
b11000 j#
b100100000001010110011 "
b100100000001010110011 D
b100100000001010110011 v"
b100100000001010110011 `#
b100100000001010110011 a#
b100 9
b100 ##
b100 u#
b10 4
b10 m
b10 H"
b10 $#
b10 l#
b1010 Q
b1010 !#
b1010 t#
b10 )
b10 ]"
b1 -
b1 \"
b11 5
b11 ["
b11 }"
b11 k#
b1000 :
b1000 Z"
b1000 |"
b1010 (
b1010 J"
b1010 ^"
b1111 R
b1111 L"
b1111 X"
b1111 z"
b1111 1#
b1111 N#
b1111 V#
b11 *
b11 P"
b11 t"
b11 n#
b0 .
b0 Q"
b0 s"
b0 m#
b1000 6
b1000 R"
b1000 r"
b1000 q#
b100011 @
b100011 p"
b100011 '#
b10 H
b10 T"
b10 n"
b10 %#
02
1Z
1f
b11 U
b11 V"
b11 k"
b1100 ;
b1100 S"
b1100 q"
b1100 (#
b1100 5#
b1100 W#
b1000 E
b1000 o"
b1000 &#
b1000 4#
b1000 P#
b10000 <
b10000 i"
b10000 x"
b100000000010001000000011 C
b100000000010001000000011 p
b100000000010001000000011 z
b100000000010001000000011 5"
b100000000010001000000011 :"
b100000000010001000000011 @"
b100000000010001000000011 w"
b10100 !
b10100 =
b10100 u"
b10100 _#
b10100 b#
b10100 d#
b10100 g#
b10100 i#
1#
#70000
0#
#75000
0)#
0+#
1.#
b101 M
b101 t
b101 F"
b101 b"
b0 J
b0 <#
b0 U#
b0 o#
1c
0b
0Y
b0 V
b0 v
b0 8"
b0 `"
b10 x
b10 |
b10 6"
b111 w
b111 7"
b111 9"
0]
0g
b11100 e#
b11100 f#
b11100 j#
b101000010001100011 "
b101000010001100011 D
b101000010001100011 v"
b101000010001100011 `#
b101000010001100011 a#
b1 +
b1 k
b1 <"
b1 D"
b1 h"
b1 s#
b100 /
b100 l
b100 ="
b100 C"
b100 g"
b100 r#
b0 I
b0 s
b0 B"
b0 c"
b101 7
b101 n
b101 >"
b101 f"
b110011 A
b110011 o
b110011 ?"
b110011 e"
b110011 4"
b0 {
b0 F
b0 q
b0 ;"
b0 d"
b10100 P
b10100 /#
b10100 ^#
b10100 c#
b10100 h#
b0 '
b0 O"
b0 ,#
b0 7#
b0 Q#
b0 S#
b1111 &
b1111 j
b1111 E"
b1111 6#
b1111 R#
b1111 Z#
b1111 x#
b11000 !
b11000 =
b11000 u"
b11000 _#
b11000 b#
b11000 d#
b11000 g#
b11000 i#
b10100 <
b10100 i"
b10100 x"
b100100000001010110011 C
b100100000001010110011 p
b100100000001010110011 z
b100100000001010110011 5"
b100100000001010110011 :"
b100100000001010110011 @"
b100100000001010110011 w"
b1000 *
b1000 P"
b1000 t"
b1000 n#
b100 6
b100 R"
b100 r"
b100 q#
b11 @
b11 p"
b11 '#
12
0Z
1\
b1 U
b1 V"
b1 k"
b10000 ;
b10000 S"
b10000 q"
b10000 (#
b10000 5#
b10000 W#
b10 G
b10 K"
b10 Y"
b11 T
b11 W"
b11 y"
1^
01
b11 )
b11 ]"
b0 -
b0 \"
b1000 5
b1000 ["
b1000 }"
b1000 k#
b1100 :
b1100 Z"
b1100 |"
b1111 (
b1111 J"
b1111 ^"
b1000 R
b1000 L"
b1000 X"
b1000 z"
b1000 1#
b1000 N#
b1000 V#
b1000 9
b1000 ##
b1000 u#
b11 4
b11 m
b11 H"
b11 $#
b11 l#
b1111 Q
b1111 !#
b1111 t#
1#
#80000
0#
