results/results.txt
 Time     PC         Instruction
---------------------------------------------------------------
    0ns   00000000   00a00093
   25ns   00000004   01400113
   35ns   00000008   002081b3
   45ns   0000000c   00118233
   55ns   00000010   00402023
[65ns] WB : x1 <= 10 (0x0000000a)
   65ns   00000014   00002283
[75ns] WB : x2 <= 20 (0x00000014)
   75ns   00000018   00520333
[85ns] WB : x3 <= 30 (0x0000001e)
   85ns   0000001c   00630463
[95ns] WB : x4 <= 40 (0x00000028)
[95ns] STORE : MEM[0] <= 40
  105ns   00000020   00100393
[115ns] WB : x5 <= 40 (0x00000028)
  115ns   00000024   00200393
[135ns] WB : x6 <= 80 (0x00000050)
  135ns   00000028   008000ef
  145ns   0000002c   00900413
  155ns   00000030   03700493
[175ns] WB : x7 <= 2 (0x00000002)
  175ns   00000034   00000013
[185ns] WB : x1 <= 44 (0x0000002c)
  185ns   00000038   00000013
  195ns   0000003c   00000013
  205ns   00000040   xxxxxxxx
[215ns] WB : x9 <= 55 (0x00000037)
  215ns   00000044   xxxxxxxx
  225ns   00000048   xxxxxxxx
  235ns   0000004c   xxxxxxxx
  245ns   00000050   xxxxxxxx
  255ns   00000054   xxxxxxxx
  265ns   00000058   xxxxxxxx
  275ns   0000005c   xxxxxxxx
  285ns   00000060   xxxxxxxx
  295ns   00000064   xxxxxxxx
  305ns   00000068   xxxxxxxx
  315ns   0000006c   xxxxxxxx
  325ns   00000070   xxxxxxxx
  335ns   00000074   xxxxxxxx
  345ns   00000078   xxxxxxxx
  355ns   0000007c   xxxxxxxx
  365ns   00000080   xxxxxxxx
  375ns   00000084   xxxxxxxx
  385ns   00000088   xxxxxxxx
  395ns   0000008c   xxxxxxxx
  405ns   00000090   xxxxxxxx
  415ns   00000094   xxxxxxxx
  425ns   00000098   xxxxxxxx
  435ns   0000009c   xxxxxxxx
  445ns   000000a0   xxxxxxxx
  455ns   000000a4   xxxxxxxx
  465ns   000000a8   xxxxxxxx
  475ns   000000ac   xxxxxxxx
  485ns   000000b0   xxxxxxxx
  495ns   000000b4   xxxxxxxx

================ REGISTER FILE ================
x0  = 0 (0x00000000)
x1  = 44 (0x0000002c)
x2  = 20 (0x00000014)
x3  = 30 (0x0000001e)
x4  = 40 (0x00000028)
x5  = 40 (0x00000028)
x6  = 80 (0x00000050)
x7  = 2 (0x00000002)
x8  = 0 (0x00000000)
x9  = 55 (0x00000037)
x10 = 0 (0x00000000)
x11 = 0 (0x00000000)
x12 = 0 (0x00000000)
x13 = 0 (0x00000000)
x14 = 0 (0x00000000)
x15 = 0 (0x00000000)
x16 = 0 (0x00000000)
x17 = 0 (0x00000000)
x18 = 0 (0x00000000)
x19 = 0 (0x00000000)
x20 = 0 (0x00000000)
x21 = 0 (0x00000000)
x22 = 0 (0x00000000)
x23 = 0 (0x00000000)
x24 = 0 (0x00000000)
x25 = 0 (0x00000000)
x26 = 0 (0x00000000)
x27 = 0 (0x00000000)
x28 = 0 (0x00000000)
x29 = 0 (0x00000000)
x30 = 0 (0x00000000)
x31 = 0 (0x00000000)

================ DATA MEMORY ==================
MEM[0] = 40
MEM[4] = x
MEM[8] = x
MEM[12] = x
MEM[16] = x
MEM[20] = x
MEM[24] = x
MEM[28] = x
MEM[32] = x
MEM[36] = x
MEM[40] = x
MEM[44] = x
MEM[48] = x
MEM[52] = x
MEM[56] = x
MEM[60] = x

============= Simulation Finished =============
.\riscv_top_tb.v:186: $finish called at 500000 (1ps)